{
  "id": "94394ac0-0872-436f-9c29-bcca74371d2e",
  "name": "Path Transportation AWS",
  "values": [
    {
      "key": "url",
      "value": "http://13.58.25.16:4040",
      "enabled": true,
      "type": "text"
    },
    {
      "key": "xAuthToken",
      "value": "eyJhbGciOiJIUzI1NiIsInR5cCI6IkpXVCJ9.eyJfaWQiOiI1YjQ5ZTg1NTI3MjkxYjM5MGYxNGI1YTQiLCJhY2Nlc3MiOiJhdXRoIiwiaWF0IjoxNTMxNTcwMjgyfQ.r3cQ9ILObWjUqIpBINzdhW_zgEW0NmnEoE35ymahad4",
      "enabled": true,
      "type": "text"
    }
  ],
  "_postman_variable_scope": "environment",
  "_postman_exported_at": "2018-07-14T12:26:21.642Z",
  "_postman_exported_using": "Postman/6.1.4"
}